…
```r
gene_data_organism <- filament_cyanos %>% 
  select(organism, contains("gene_")) %>% # get rid of the gene_ part for the final pres.
  pivot_longer(-organism,
               names_to = "gene",
               values_to = "gene_count") %>% 
  filter(!is.na(gene_count))
gene_data_organism
```

```
## # A tibble: 861 × 3
##    organism                     gene       gene_count
##    <chr>                        <chr>           <dbl>
##  1 Nostoc punctiforme PCC 73102 gene_gyr_a          2
##  2 Nostoc punctiforme PCC 73102 gene_nus_a          1
##  3 Nostoc punctiforme PCC 73102 gene_inf_c          5
##  4 Nostoc punctiforme PCC 73102 gene_inf_a          1
##  5 Nostoc punctiforme PCC 73102 gene_ots_a          0
##  6 Nostoc punctiforme PCC 73102 gene_dna_k         10
##  7 Nostoc punctiforme PCC 73102 gene_rec_a          1
##  8 Nostoc punctiforme PCC 73102 gene_dna_j         12
##  9 Nostoc punctiforme PCC 73102 gene_ace_f          3
## 10 Nostoc punctiforme PCC 73102 gene_dea_d         19
## # … with 851 more rows
```
…
```r
clust_map_org <- gene_data_organism %>% # make pivot_wider for scale()
  pivot_wider(names_from = "gene",
              values_from = "gene_count")
clust_map_org
```

```
## # A tibble: 41 × 22
##    organism    gene_gyr_a gene_nus_a gene_inf_c gene_inf_a gene_ots_a gene_dna_k
##    <chr>            <dbl>      <dbl>      <dbl>      <dbl>      <dbl>      <dbl>
##  1 Nostoc pun…          2          1          5          1          0         10
##  2 Oscillator…          2          2          1          1          0          9
##  3 Oscillator…          2          1          1          1          0          7
##  4 Nostoc fla…          2          1          2          0          1          7
##  5 Trichodesm…          2          1          1          1          0         11
##  6 Nostoc sph…          2          1          2          1          0          9
##  7 Leptolyngb…          2          1          1          1          0          5
##  8 Nostoc azo…          2          1          1          1          0          8
##  9 Dolichospe…          2          1          1          1          0          7
## 10 Anabaena c…          2          1          1          1          0          8
## # … with 31 more rows, and 15 more variables: gene_rec_a <dbl>,
## #   gene_dna_j <dbl>, gene_ace_f <dbl>, gene_dea_d <dbl>, gene_inf_b <dbl>,
## #   gene_tig <dbl>, gene_rnr <dbl>, gene_dna_a <dbl>, gene_hup_b <dbl>,
## #   gene_rbf_a <dbl>, gene_yfl_a <dbl>, gene_pnp <dbl>, gene_csp <dbl>,
## #   gene_ace_e <dbl>, gene_des_a <dbl>
```


```r
scaled_clust_map <- clust_map_org 
scaled_clust_map[, c(2:22)] <- scale(scaled_clust_map[, 2:22])
scaled_clust_map
```

```
## # A tibble: 41 × 22
##    organism    gene_gyr_a gene_nus_a gene_inf_c gene_inf_a gene_ots_a gene_dna_k
##    <chr>            <dbl>      <dbl>      <dbl>      <dbl>      <dbl>      <dbl>
##  1 Nostoc pun…     -0.156     -0.156      4.24      0.0894     -0.448      1.70 
##  2 Oscillator…     -0.156      6.25      -0.727     0.0894     -0.448      1.00 
##  3 Oscillator…     -0.156     -0.156     -0.727     0.0894     -0.448     -0.392
##  4 Nostoc fla…     -0.156     -0.156      0.515    -3.58        2.18      -0.392
##  5 Trichodesm…     -0.156     -0.156     -0.727     0.0894     -0.448      2.40 
##  6 Nostoc sph…     -0.156     -0.156      0.515     0.0894     -0.448      1.00 
##  7 Leptolyngb…     -0.156     -0.156     -0.727     0.0894     -0.448     -1.79 
##  8 Nostoc azo…     -0.156     -0.156     -0.727     0.0894     -0.448      0.306
##  9 Dolichospe…     -0.156     -0.156     -0.727     0.0894     -0.448     -0.392
## 10 Anabaena c…     -0.156     -0.156     -0.727     0.0894     -0.448      0.306
## # … with 31 more rows, and 15 more variables: gene_rec_a <dbl>,
## #   gene_dna_j <dbl>, gene_ace_f <dbl>, gene_dea_d <dbl>, gene_inf_b <dbl>,
## #   gene_tig <dbl>, gene_rnr <dbl>, gene_dna_a <dbl>, gene_hup_b <dbl>,
## #   gene_rbf_a <dbl>, gene_yfl_a <dbl>, gene_pnp <dbl>, gene_csp <dbl>,
## #   gene_ace_e <dbl>, gene_des_a <dbl>
```
…
