…
```r
gene_data_genus <- filament_cyanos %>% 
  select(genus, contains("gene_")) %>% 
  pivot_longer(-genus,
               names_to = "gene",
               values_to = "gene_count") %>% 
  filter(!is.na(gene_count))
gene_data_genus
```

```
## # A tibble: 861 × 3
##    genus  gene       gene_count
##    <chr>  <chr>           <dbl>
##  1 Nostoc gene_gyr_a          2
##  2 Nostoc gene_nus_a          1
##  3 Nostoc gene_inf_c          5
##  4 Nostoc gene_inf_a          1
##  5 Nostoc gene_ots_a          0
##  6 Nostoc gene_dna_k         10
##  7 Nostoc gene_rec_a          1
##  8 Nostoc gene_dna_j         12
##  9 Nostoc gene_ace_f          3
## 10 Nostoc gene_dea_d         19
## # … with 851 more rows
```
…
```r
gene_data_organism <- filament_cyanos %>% 
  select(organism, contains("gene_")) %>% # get rid of the gene_ part for the final pres.
  pivot_longer(-organism,
               names_to = "gene",
               values_to = "gene_count") %>% 
  filter(!is.na(gene_count))
gene_data_organism
```

```
## # A tibble: 861 × 3
##    organism                     gene       gene_count
##    <chr>                        <chr>           <dbl>
##  1 Nostoc punctiforme PCC 73102 gene_gyr_a          2
##  2 Nostoc punctiforme PCC 73102 gene_nus_a          1
##  3 Nostoc punctiforme PCC 73102 gene_inf_c          5
##  4 Nostoc punctiforme PCC 73102 gene_inf_a          1
##  5 Nostoc punctiforme PCC 73102 gene_ots_a          0
##  6 Nostoc punctiforme PCC 73102 gene_dna_k         10
##  7 Nostoc punctiforme PCC 73102 gene_rec_a          1
##  8 Nostoc punctiforme PCC 73102 gene_dna_j         12
##  9 Nostoc punctiforme PCC 73102 gene_ace_f          3
## 10 Nostoc punctiforme PCC 73102 gene_dea_d         19
## # … with 851 more rows
```
…
## Cyanobacteria Strain Environmental Temperatures


```r
temperature_gene <- filament_cyanos %>% 
  select(organism, tempurature_avg, contains("gene_")) %>% 
  filter(!is.na(tempurature_avg))
temperature_gene
```

```
## # A tibble: 27 × 23
##    organism          tempurature_avg gene_gyr_a gene_nus_a gene_inf_c gene_inf_a
##    <chr>                       <dbl>      <dbl>      <dbl>      <dbl>      <dbl>
##  1 Oscillatoria nig…            29            2          1          1          1
##  2 Limnospira fusif…            40           NA         NA         NA         NA
##  3 Nostoc flagellif…             3.2          2          1          2          0
##  4 Trichodesmium er…             8            2          1          1          1
##  5 Nostoc sphaeroid…            15.2          2          1          2          1
##  6 Anabaena cylindr…             2.5          2          1          1          1
##  7 Nostoc sp. 'Pelt…            -2            2          1          2          2
##  8 Nostoc sp. TCL24…            25            2          1          2          1
##  9 Nostoc sp. C052              20            2          1          2          1
## 10 Nostoc sp. C057              15            2          1          2          1
## # … with 17 more rows, and 17 more variables: gene_ots_a <dbl>,
## #   gene_dna_k <dbl>, gene_rec_a <dbl>, gene_dna_j <dbl>, gene_ace_f <dbl>,
## #   gene_dea_d <dbl>, gene_inf_b <dbl>, gene_tig <dbl>, gene_rnr <dbl>,
## #   gene_dna_a <dbl>, gene_hup_b <dbl>, gene_rbf_a <dbl>, gene_yfl_a <dbl>,
## #   gene_pnp <dbl>, gene_csp <dbl>, gene_ace_e <dbl>, gene_des_a <dbl>
```
…
### Make a long version

```r
trim_fil_cyn_long <- trim_fil_cyn %>% 
  pivot_longer(-c(genus, organism),
               names_to ="gene",
               values_to = "n")
trim_fil_cyn_long
```

```
## # A tibble: 567 × 4
##    genus        organism                            gene           n
##    <fct>        <fct>                               <chr>      <dbl>
##  1 Oscillatoria Oscillatoria nigro-viridis PCC 7112 gene_gyr_a     2
##  2 Oscillatoria Oscillatoria nigro-viridis PCC 7112 gene_nus_a     1
##  3 Oscillatoria Oscillatoria nigro-viridis PCC 7112 gene_inf_c     1
##  4 Oscillatoria Oscillatoria nigro-viridis PCC 7112 gene_inf_a     1
##  5 Oscillatoria Oscillatoria nigro-viridis PCC 7112 gene_ots_a     0
##  6 Oscillatoria Oscillatoria nigro-viridis PCC 7112 gene_dna_k     7
##  7 Oscillatoria Oscillatoria nigro-viridis PCC 7112 gene_rec_a     2
##  8 Oscillatoria Oscillatoria nigro-viridis PCC 7112 gene_dna_j     7
##  9 Oscillatoria Oscillatoria nigro-viridis PCC 7112 gene_ace_f     1
## 10 Oscillatoria Oscillatoria nigro-viridis PCC 7112 gene_dea_d    17
## # … with 557 more rows
```

### Filter out NA's


```r
trim_fil_cyn_long2<- trim_fil_cyn_long %>% 
  filter(n!=is.na(n))
trim_fil_cyn_long2
```

```
## # A tibble: 427 × 4
##    genus        organism                            gene           n
##    <fct>        <fct>                               <chr>      <dbl>
##  1 Oscillatoria Oscillatoria nigro-viridis PCC 7112 gene_gyr_a     2
##  2 Oscillatoria Oscillatoria nigro-viridis PCC 7112 gene_nus_a     1
##  3 Oscillatoria Oscillatoria nigro-viridis PCC 7112 gene_inf_c     1
##  4 Oscillatoria Oscillatoria nigro-viridis PCC 7112 gene_inf_a     1
##  5 Oscillatoria Oscillatoria nigro-viridis PCC 7112 gene_dna_k     7
##  6 Oscillatoria Oscillatoria nigro-viridis PCC 7112 gene_rec_a     2
##  7 Oscillatoria Oscillatoria nigro-viridis PCC 7112 gene_dna_j     7
##  8 Oscillatoria Oscillatoria nigro-viridis PCC 7112 gene_ace_f     1
##  9 Oscillatoria Oscillatoria nigro-viridis PCC 7112 gene_dea_d    17
## 10 Oscillatoria Oscillatoria nigro-viridis PCC 7112 gene_inf_b     6
## # … with 417 more rows
```
…
