…
```r
gene_data_organism <- filament_cyanos %>% 
  select(organism, contains("gene_")) %>% 
  pivot_longer(-organism,
               names_to = "gene",
               values_to = "gene_count") %>% 
  filter(!is.na(gene_count))
gene_data_organism
```

```
## # A tibble: 861 × 3
##    organism                     gene       gene_count
##    <chr>                        <chr>           <dbl>
##  1 Nostoc punctiforme PCC 73102 gene_gyr_a          2
##  2 Nostoc punctiforme PCC 73102 gene_nus_a          1
##  3 Nostoc punctiforme PCC 73102 gene_inf_c          5
##  4 Nostoc punctiforme PCC 73102 gene_inf_a          1
##  5 Nostoc punctiforme PCC 73102 gene_ots_a          0
##  6 Nostoc punctiforme PCC 73102 gene_dna_k         10
##  7 Nostoc punctiforme PCC 73102 gene_rec_a          1
##  8 Nostoc punctiforme PCC 73102 gene_dna_j         12
##  9 Nostoc punctiforme PCC 73102 gene_ace_f          3
## 10 Nostoc punctiforme PCC 73102 gene_dea_d         19
## # … with 851 more rows
```
…
```r
clust_map_org <- gene_data_organism %>% # make pivot_wider for scale()
  pivot_wider(names_from = "gene",
              values_from = "gene_count")
  
names(clust_map_org) = gsub(pattern = "gene_", replacement = "", x = names(clust_map_org))
names(clust_map_org) = gsub(pattern = "_", replacement = " ", x = names(clust_map_org))

clust_map_org
```

```
## # A tibble: 41 × 22
##    organism      `gyr a` `nus a` `inf c` `inf a` `ots a` `dna k` `rec a` `dna j`
##    <chr>           <dbl>   <dbl>   <dbl>   <dbl>   <dbl>   <dbl>   <dbl>   <dbl>
##  1 Nostoc punct…       2       1       5       1       0      10       1      12
##  2 Oscillatoria…       2       2       1       1       0       9       3       7
##  3 Oscillatoria…       2       1       1       1       0       7       2       7
##  4 Nostoc flage…       2       1       2       0       1       7       1      10
##  5 Trichodesmiu…       2       1       1       1       0      11       1       7
##  6 Nostoc sphae…       2       1       2       1       0       9       1      10
##  7 Leptolyngbya…       2       1       1       1       0       5       2       7
##  8 Nostoc azoll…       2       1       1       1       0       8       1       7
##  9 Dolichosperm…       2       1       1       1       0       7       1       6
## 10 Anabaena cyl…       2       1       1       1       0       8       1       8
## # … with 31 more rows, and 13 more variables: `ace f` <dbl>, `dea d` <dbl>,
## #   `inf b` <dbl>, tig <dbl>, rnr <dbl>, `dna a` <dbl>, `hup b` <dbl>,
## #   `rbf a` <dbl>, `yfl a` <dbl>, pnp <dbl>, csp <dbl>, `ace e` <dbl>,
## #   `des a` <dbl>
```


```r
scaled_clust_map <- clust_map_org 
scaled_clust_map[, c(2:22)] <- scale(scaled_clust_map[, 2:22])

scaled_clust_map
```

```
## # A tibble: 41 × 22
##    organism      `gyr a` `nus a` `inf c` `inf a` `ots a` `dna k` `rec a` `dna j`
##    <chr>           <dbl>   <dbl>   <dbl>   <dbl>   <dbl>   <dbl>   <dbl>   <dbl>
##  1 Nostoc punct…  -0.156  -0.156   4.24   0.0894  -0.448   1.70   -0.425   1.89 
##  2 Oscillatoria…  -0.156   6.25   -0.727  0.0894  -0.448   1.00    3.93   -0.937
##  3 Oscillatoria…  -0.156  -0.156  -0.727  0.0894  -0.448  -0.392   1.75   -0.937
##  4 Nostoc flage…  -0.156  -0.156   0.515 -3.58     2.18   -0.392  -0.425   0.758
##  5 Trichodesmiu…  -0.156  -0.156  -0.727  0.0894  -0.448   2.40   -0.425  -0.937
##  6 Nostoc sphae…  -0.156  -0.156   0.515  0.0894  -0.448   1.00   -0.425   0.758
##  7 Leptolyngbya…  -0.156  -0.156  -0.727  0.0894  -0.448  -1.79    1.75   -0.937
##  8 Nostoc azoll…  -0.156  -0.156  -0.727  0.0894  -0.448   0.306  -0.425  -0.937
##  9 Dolichosperm…  -0.156  -0.156  -0.727  0.0894  -0.448  -0.392  -0.425  -1.50 
## 10 Anabaena cyl…  -0.156  -0.156  -0.727  0.0894  -0.448   0.306  -0.425  -0.372
## # … with 31 more rows, and 13 more variables: `ace f` <dbl>, `dea d` <dbl>,
## #   `inf b` <dbl>, tig <dbl>, rnr <dbl>, `dna a` <dbl>, `hup b` <dbl>,
## #   `rbf a` <dbl>, `yfl a` <dbl>, pnp <dbl>, csp <dbl>, `ace e` <dbl>,
## #   `des a` <dbl>
```




```r
rnames <- scaled_clust_map[,1] # made singe column to use as rownames
rnames
```

```
## # A tibble: 41 × 1
##    organism                               
##    <chr>                                  
##  1 Nostoc punctiforme PCC 73102           
##  2 Oscillatoria acuminata PCC 6304        
##  3 Oscillatoria nigro-viridis PCC 7112    
##  4 Nostoc flagelliforme CCNUN1            
##  5 Trichodesmium erythraeum IMS101        
##  6 Nostoc sphaeroides                     
##  7 Leptolyngbya boryana NIES-2135         
##  8 Nostoc azollae' 0708                   
##  9 Dolichospermum flos-aquae CCAP 1403/13F
## 10 Anabaena cylindrica PCC 7122           
## # … with 31 more rows
```
…
